DataFest
…
TwitteR:

https://opensource.com/article/17/6/collecting-and-mapping-twitter-data-using-r

Im still applying for a Twitter dev account in order to access the Twitter API

Global Measures

global_measures %>%
  filter(CATEGORY == "Social distancing") %>%
  count(COUNTRY) %>%
  arrange(-n)

## # A tibble: 173 x 2
##    COUNTRY               n
##    <fct>             <int>
##  1 Ireland              17
##  2 Hungary              14
##  3 Australia            13
##  4 Lithuania            12
##  5 Yemen                12
##  6 Barbados             11
##  7 Czech Republic       11
##  8 Equatorial Guinea    11
##  9 Estonia              11
## 10 Ethiopia             11
## #  with 163 more rows
…
